Values Missing Table Awareness Function — value_missing_table • dbGaPCheckup
…
#> $report
#> # A tibble: 7 × 2
#>   Function            Information$check.name    $check.description $check.status
#>   <chr>               <chr>                     <chr>              <chr>        
#> 1 value_missing_table Check A: In M, Not in D   "All missing valu… Flag         
#> 2 value_missing_table Check B: In V, Not in D   "All value codes … Flag         
#> 3 value_missing_table Check C: In M, Not in V   "All missing valu… Flag         
#> 4 value_missing_table Check D: In M & in D, no… "All missing valu… Flag         
#> 5 value_missing_table Check E: V NOT in M, NOT… "All value codes … Passed       
#> 6 value_missing_table Awareness: NsetD vs. Nse… "Size of Set D vs… Info         
#> 7 value_missing_table Awareness: N_DnotM vs. N… "Size of Set D\\M… Info         
#> # ℹ 1 more variable: Information$details <named list>
#> 
#> $tb
#> # A tibble: 52 × 35
#>    VARNAME   TYPE   VALUE MEANING VInD  NumUniqDVs AllMInD AnyMInD MInD  MNotInD
#>    <chr>     <chr>  <chr> <chr>   <lgl>      <int> <lgl>   <lgl>   <lis> <list> 
#>  1 SAMPLE_ID integ… -9999 missin… TRUE          85 TRUE    TRUE    <dbl> <chr>  
#>  2 SEX       integ… 0     male    TRUE           2 FALSE   FALSE   <chr> <dbl>  
#>  3 SEX       integ… 1     female  TRUE           2 FALSE   FALSE   <chr> <dbl>  
#>  4 HEIGHT    decim… -9999 missin… TRUE          96 TRUE    TRUE    <dbl> <chr>  
#>  5 WEIGHT    decim… -9999 missin… TRUE          77 TRUE    TRUE    <dbl> <chr>  
#>  6 BMI       decim… -9999 missin… TRUE          98 TRUE    TRUE    <dbl> <chr>  
#>  7 OBESITY   integ… 0     no      TRUE           3 TRUE    TRUE    <dbl> <chr>  
#>  8 OBESITY   integ… 1     yes     TRUE           3 TRUE    TRUE    <dbl> <chr>  
#>  9 OBESITY   integ… -9999 missin… TRUE           3 TRUE    TRUE    <dbl> <chr>  
#> 10 ABD_CIRC  decim… -9999 missin… TRUE          70 TRUE    TRUE    <dbl> <chr>  
#> # ℹ 42 more rows
#> # ℹ 25 more variables: AllVsInD <lgl>, VsNotInD <list>, AllDefVsInMInD <lgl>,
#> #   DefVsInMNotInD <list>, AllSetMInSetV <lgl>, SetMsNotInSetV <list>,
#> #   All_MInSetD_InSetV <lgl>, setMInDNotInV <list>, All_VNotInM_NotInD <lgl>,
#> #   setVNotInM_NotInD <chr>, NsetD <int>, NsetM <int>, NsetV <int>,
#> #   NsetDAndSetV <int>, NsetMAndSetV <int>, NsetDAndSetM <int>, setV <list>,
#> #   setD <list>, setM <list>, setDnotM <list>, setVnotM <list>, …
…
